Year,Timber,Meat,Cereal,Recreation
2000,5000,5000,5000,0
2001,5000,5000,5000,0
2002,5000,5000,5000,0
2003,5000,5000,5000,0
2004,5000,5000,5000,0
2005,5000,5000,5000,0
2006,5000,5000,5000,0
2007,5000,5000,5000,0
2008,5000,5000,5000,0
2009,5000,5000,5000,0
2010,5000,5000,5000,0
2011,5000,5000,5000,0
2012,5000,5000,5000,0
2013,5000,5000,5000,0
2014,5000,5000,5000,0
2015,5000,5000,5000,0
2016,5000,5000,5000,0
2017,5000,5000,5000,0
2018,5000,5000,5000,0
2019,5000,5000,5000,0
2020,5000,5000,5000,0
2021,5000,5000,5000,0
2022,5000,5000,5000,0
2023,5000,5000,5000,0
2024,5000,5000,5000,0
2025,5000,5000,5000,0
